Learning R - 11. Working with Dates
…
library(lubridate)

filmpermits_clean_dates <- filmpermits_clean %>% 
  mutate(start_date_time = mdy_hms(start_date_time),
         end_date_time = mdy_hms(end_date_time))

# Let's see what the earliest start date in the dataset is. This will run in the console. 
filmpermits_clean_dates %>% arrange(start_date_time)

# A tibble: 2,597 x 7
   event_type             borough category sub_category_name start_date_time    
   <chr>                  <chr>   <chr>    <chr>             <dttm>             
 1 Theater Load in and L~ Manhat~ Theater  Theater           2023-01-01 00:01:00
 2 Theater Load in and L~ Manhat~ Theater  Theater           2023-01-01 00:01:00
 3 Shooting Permit        Manhat~ Televis~ News              2023-01-01 04:00:00
 4 Shooting Permit        Manhat~ Televis~ News              2023-01-02 04:00:00
 5 Theater Load in and L~ Brookl~ Theater  Theater           2023-01-03 07:00:00
 6 Shooting Permit        Queens  Televis~ Episodic series   2023-01-03 07:00:00
 7 Shooting Permit        Brookl~ Televis~ Episodic series   2023-01-03 10:00:00
 8 Rigging Permit         Manhat~ Documen~ Not Applicable    2023-01-03 17:00:00
 9 Shooting Permit        Manhat~ Televis~ Morning Show      2023-01-04 05:00:00
10 Shooting Permit        Manhat~ Documen~ Not Applicable    2023-01-04 06:00:00
# i 2,587 more rows
# i 2 more variables: end_date_time <dttm>, type <chr>

# Let's see what the latest start date in the dataset is. 
filmpermits_clean_dates %>% arrange(desc(start_date_time))

# A tibble: 2,597 x 7
   event_type             borough category sub_category_name start_date_time    
   <chr>                  <chr>   <chr>    <chr>             <dttm>             
 1 Shooting Permit        Manhat~ Film     Feature           2023-06-01 09:00:00
 2 Shooting Permit        Manhat~ Televis~ News              2023-06-01 09:00:00
 3 Shooting Permit        Queens  Film     Feature           2023-06-01 08:00:00
 4 Shooting Permit        Bronx   Televis~ Episodic series   2023-06-01 07:00:00
 5 Shooting Permit        Manhat~ Televis~ Episodic series   2023-06-01 07:00:00
 6 Shooting Permit        Queens  Televis~ Episodic series   2023-06-01 07:00:00
 7 Shooting Permit        Manhat~ Commerc~ Commercial        2023-06-01 06:00:00
 8 Shooting Permit        Manhat~ Still P~ Not Applicable    2023-06-01 06:00:00
 9 Shooting Permit        Brookl~ Televis~ Episodic series   2023-06-01 05:00:00
10 Theater Load in and L~ Manhat~ Theater  Theater           2023-06-01 01:00:00
# i 2,587 more rows
# i 2 more variables: end_date_time <dttm>, type <chr>
…
