Learning R - 16. Census Data with tidycensus
…
Then I’ll read in this crosswalk between neighborhoods and tracts from the NYC Open data portal. By joining the two on GEOID I can summarize at the neighborhood level

nta_tract <- read_csv("https://data.cityofnewyork.us/resource/hm78-6dwm.csv",
                      col_types = cols(geoid = col_character())) %>% 
  filter(boroname == "Brooklyn")

pop_data_joined <- nta_tract %>% 
  full_join(pop_data, by = c("geoid" = "GEOID"))
  
pop_data_joined %>%
  filter(variable == "total_population") %>%
  group_by(ntaname) %>% 
  summarize(total_population = sum(estimate))

# A tibble: 53 x 2
   ntaname                   total_population
   <chr>                                <dbl>
 1 Bath Beach                           33765
 2 Bay Ridge                            85796
 3 Bedford-Stuyvesant (East)            92298
 4 Bedford-Stuyvesant (West)            89224
 5 Bensonhurst                         102241
 6 Borough Park                         84493
 7 Brighton Beach                       31295
 8 Brooklyn Heights                     24775
 9 Brooklyn Navy Yard                       0
10 Bushwick (East)                      62987
# ... with 43 more rows
…
