Learning R - 4. Reading Data and Data Types
…
read_csv("For_Hire_Vehicles__FHV__-_Active.csv")

Rows: 98318 Columns: 23
-- Column specification --------------------------------------------------------
Delimiter: ","
chr  (20): Active, Vehicle License Number, Name, License Type, Expiration Da...
dbl   (1): Vehicle Year
lgl   (1): Order Date
time  (1): Last Time Updated

i Use `spec()` to retrieve the full column specification for this data.
i Specify the column types or set `show_col_types = FALSE` to quiet this message.

# A tibble: 98,318 x 23
   Active `Vehicle License Number` Name         `License Type` `Expiration Date`
   <chr>  <chr>                    <chr>        <chr>          <chr>            
 1 YES    5608977                  AMERICAN,UN~ FOR HIRE VEHI~ 04/30/2025       
 2 YES    5645622                  RAMA,ILIR    FOR HIRE VEHI~ 09/11/2023       
 3 YES    5192507                  ORDONEZ,ELI~ FOR HIRE VEHI~ 03/08/2025       
 4 YES    5378856                  RIVERA,ENMA  FOR HIRE VEHI~ 11/12/2024       
 5 YES    5852121                  A/VA,SERVIC~ FOR HIRE VEHI~ 04/11/2024       
 6 YES    5415237                  REYES,JUAN,E FOR HIRE VEHI~ 10/31/2023       
 7 YES    5643301                  BEGUM,TAZMI~ FOR HIRE VEHI~ 09/30/2025       
 8 YES    5701439                  GONZALEZALV~ FOR HIRE VEHI~ 06/13/2024       
 9 YES    5790931                  GOMEZ,JOSE,A FOR HIRE VEHI~ 05/23/2025       
10 YES    5743759                  HOSSAIN,SM,~ FOR HIRE VEHI~ 12/08/2024       
# i 98,308 more rows
# i 18 more variables: `Permit License Number` <chr>,
#   `DMV License Plate Number` <chr>, `Vehicle VIN Number` <chr>,
#   `Wheelchair Accessible` <chr>, `Certification Date` <chr>,
#   `Hack Up Date` <chr>, `Vehicle Year` <dbl>, `Base Number` <chr>,
#   `Base Name` <chr>, `Base Type` <chr>, VEH <chr>,
#   `Base Telephone Number` <chr>, Website <chr>, `Base Address` <chr>, ...
…
