Learning R - 7. Mutate
…
Mutate is an incredibly powerful tool to create new columns and new variables.

Let’s grab our code to read in the clean dataframe

fhv_clean <- read_csv(file = "For_Hire_Vehicles__FHV__-_Active.csv") %>% 
  clean_names() %>% 
  rename(hybrid = veh)

We create a new column with mutate by setting the name of our new column and a new value

fhv_clean %>% 
  mutate(city = "New York City")

# A tibble: 98,318 x 24
   active vehicle_license_~ name   license_type expiration_date permit_license_~
   <chr>  <chr>             <chr>  <chr>        <chr>           <chr>           
 1 YES    5608977           AMERI~ FOR HIRE VE~ 04/30/2025      <NA>            
 2 YES    5645622           RAMA,~ FOR HIRE VE~ 09/11/2023      <NA>            
 3 YES    5192507           ORDON~ FOR HIRE VE~ 03/08/2025      <NA>            
 4 YES    5378856           RIVER~ FOR HIRE VE~ 11/12/2024      <NA>            
 5 YES    5852121           A/VA,~ FOR HIRE VE~ 04/11/2024      <NA>            
 6 YES    5415237           REYES~ FOR HIRE VE~ 10/31/2023      AA243           
 7 YES    5643301           BEGUM~ FOR HIRE VE~ 09/30/2025      <NA>            
 8 YES    5701439           GONZA~ FOR HIRE VE~ 06/13/2024      <NA>            
 9 YES    5790931           GOMEZ~ FOR HIRE VE~ 05/23/2025      <NA>            
10 YES    5743759           HOSSA~ FOR HIRE VE~ 12/08/2024      <NA>            
# ... with 98,308 more rows, and 18 more variables:
#   dmv_license_plate_number <chr>, vehicle_vin_number <chr>,
#   wheelchair_accessible <chr>, certification_date <chr>, hack_up_date <chr>,
#   vehicle_year <dbl>, base_number <chr>, base_name <chr>, base_type <chr>,
#   hybrid <chr>, base_telephone_number <chr>, website <chr>,
#   base_address <chr>, reason <chr>, order_date <lgl>,
#   last_date_updated <chr>, last_time_updated <time>, city <chr>

You can create multiple new columns (...) at once

fhv_clean %>% 
  mutate(city = "New York City",
         active = TRUE) #I can overwrite column names too. I've made this active column boolean (true or false)

# A tibble: 98,318 x 24
   active vehicle_license_~ name   license_type expiration_date permit_license_~
   <lgl>  <chr>             <chr>  <chr>        <chr>           <chr>           
 1 TRUE   5608977           AMERI~ FOR HIRE VE~ 04/30/2025      <NA>            
 2 TRUE   5645622           RAMA,~ FOR HIRE VE~ 09/11/2023      <NA>            
 3 TRUE   5192507           ORDON~ FOR HIRE VE~ 03/08/2025      <NA>            
 4 TRUE   5378856           RIVER~ FOR HIRE VE~ 11/12/2024      <NA>            
 5 TRUE   5852121           A/VA,~ FOR HIRE VE~ 04/11/2024      <NA>            
 6 TRUE   5415237           REYES~ FOR HIRE VE~ 10/31/2023      AA243           
 7 TRUE   5643301           BEGUM~ FOR HIRE VE~ 09/30/2025      <NA>            
 8 TRUE   5701439           GONZA~ FOR HIRE VE~ 06/13/2024      <NA>            
 9 TRUE   5790931           GOMEZ~ FOR HIRE VE~ 05/23/2025      <NA>            
10 TRUE   5743759           HOSSA~ FOR HIRE VE~ 12/08/2024      <NA>            
# ... with 98,308 more rows, and 18 more variables:
#   dmv_license_plate_number <chr>, vehicle_vin_number <chr>,
#   wheelchair_accessible <chr>, certification_date <chr>, hack_up_date <chr>,
#   vehicle_year <dbl>, base_number <chr>, base_name <chr>, base_type <chr>,
#   hybrid <chr>, base_telephone_number <chr>, website <chr>,
#   base_address <chr>, reason <chr>, order_date <lgl>,
#   last_date_updated <chr>, last_time_updated <time>, city <chr>
…
Normalizing with Mutate

You can use statistical functions like mean to normalize data with mutate. mean will return the average of all the vehicle years. You can use mutate to generate a new variable that takes the distance from each observation to the mean.

fhv_clean %>% 
  mutate(year_norm = vehicle_year/mean(vehicle_year, na.rm = T),
         year_pct = percent_rank(vehicle_year)) %>% 
  select(vehicle_license_number, vehicle_year, year_norm, year_pct)

# A tibble: 98,318 x 4
   vehicle_license_number vehicle_year year_norm year_pct
   <chr>                         <dbl>     <dbl>    <dbl>
 1 5608977                        2015     0.998   0.120 
 2 5645622                        2022     1.00    0.797 
 3 5192507                        2016     0.999   0.212 
 4 5378856                        2018     1.00    0.440 
 5 5852121                        2019     1.00    0.552 
 6 5415237                        2012     0.997   0.0225
 7 5643301                        2015     0.998   0.120 
 8 5701439                        2016     0.999   0.212 
 9 5790931                        2017     0.999   0.313 
10 5743759                        2021     1.00    0.714 
# ... with 98,308 more rows
