Learning R - 8. Group By and Summarize
…
Group_by with mutate

Pair group_by with mutate to create helpful summary level variables without reducing the number of rows in the dataset.

fhv_clean %>% 
  group_by(base_name) %>% 
  mutate(total_by_name = n()) #variable with the total # of cars for each company name

# A tibble: 98,318 x 24
# Groups:   base_name [771]
   active vehicle_license_~ name   license_type expiration_date permit_license_~
   <chr>  <chr>             <chr>  <chr>        <chr>           <chr>           
 1 YES    5608977           AMERI~ FOR HIRE VE~ 04/30/2025      <NA>            
 2 YES    5645622           RAMA,~ FOR HIRE VE~ 09/11/2023      <NA>            
 3 YES    5192507           ORDON~ FOR HIRE VE~ 03/08/2025      <NA>            
 4 YES    5378856           RIVER~ FOR HIRE VE~ 11/12/2024      <NA>            
 5 YES    5852121           A/VA,~ FOR HIRE VE~ 04/11/2024      <NA>            
 6 YES    5415237           REYES~ FOR HIRE VE~ 10/31/2023      AA243           
 7 YES    5643301           BEGUM~ FOR HIRE VE~ 09/30/2025      <NA>            
 8 YES    5701439           GONZA~ FOR HIRE VE~ 06/13/2024      <NA>            
 9 YES    5790931           GOMEZ~ FOR HIRE VE~ 05/23/2025      <NA>            
10 YES    5743759           HOSSA~ FOR HIRE VE~ 12/08/2024      <NA>            
# ... with 98,308 more rows, and 18 more variables:
#   dmv_license_plate_number <chr>, vehicle_vin_number <chr>,
#   wheelchair_accessible <chr>, certification_date <chr>, hack_up_date <chr>,
#   vehicle_year <dbl>, base_number <chr>, base_name <chr>, base_type <chr>,
#   hybrid <chr>, base_telephone_number <chr>, website <chr>,
#   base_address <chr>, reason <chr>, order_date <lgl>,
#   last_date_updated <chr>, last_time_updated <time>, total_by_name <int>
…
